Firmware/verilog/top_tb.vcd
$date
	Tue Nov 24 21:57:56 2020
$end
$version
	Icarus Verilog
$end
$timescale
	1ps
$end
$scope module tb $end
$scope module t $end
$var wire 1 ! CLK $end
$var wire 1 " LED $end
$var wire 1 # PIN_10 $end
$var wire 1 $ PIN_11 $end
$var wire 1 % PIN_12 $end
$var wire 1 & new_addr $end
$var wire 8 ' addr_data [7:0] $end
$var wire 8 ( addr [7:0] $end
$var wire 1 ) PIN_13 $end
$scope module SPI_i $end
$var wire 1 ) MISO $end
$var wire 1 % MOSI $end
$var wire 1 # SCK $end
$var wire 1 $ SSEL $end
$var wire 1 * SSEL_active $end
$var wire 1 ! clk $end
$var wire 8 + addr_data [7:0] $end
$var wire 1 , SCK_risingedge $end
$var wire 1 - SCK_fallingedge $end
$var wire 1 . MOSI_data $end
$var reg 2 / MOSIr [1:0] $end
$var reg 3 0 SCKr [2:0] $end
$var reg 3 1 SSELr [2:0] $end
$var reg 8 2 addr [7:0] $end
$var reg 1 3 bit_out $end
$var reg 1 4 d1 $end
$var reg 1 5 firstByte $end
$var reg 3 6 in_cnt [2:0] $end
$var reg 8 7 in_data [7:0] $end
$var reg 1 & new_addr $end
$var reg 3 8 out_cnt [2:0] $end
$var reg 8 9 out_data [7:0] $end
$var reg 3 : state [2:0] $end
$upscope $end
$scope module reg_mag_i $end
$var wire 8 ; addr [7:0] $end
$var wire 1 ! clk $end
$var wire 1 & new_addr $end
$var reg 8 < addr_data [7:0] $end
$upscope $end
$upscope $end
$upscope $end
$enddefinitions $end
#0
$dumpvars
b0 <
bx ;
bx :
bx 9
bx 8
bx 7
bx 6
x5
x4
x3
bx 2
bx 1
bx 0
bx /
x.
x-
x,
b0 +
x*
x)
bx (
b0 '
x&
0%
0$
1#
x"
0!
$end
#31000
bx1 0
bx0 /
bx1 1
1$
1!
#62000
0!
#93000
0.
0-
b0 /
bx11 0
0*
bx11 1
1!
#124000
0!
#155000
0,
b111 0
b0 :
b111 1
1!
#186000
0!
#217000
b0 (
b0 2
b0 ;
0"
0&
b11001100 9
15
0)
03
b0 8
b0 6
1!
#248000
0!
#279000
1!
#310000
0!
#341000
1!
#372000
0!
#403000
1!
#434000
0!
#465000
1!
#496000
0!
#527000
1!
#558000
0!
#589000
1!
#620000
0!
#651000
1!
#682000
0!
#713000
1!
#744000
0!
#775000
1!
#806000
0!
#837000
1!
#868000
0!
#899000
1!
#930000
0!
#961000
1!
#992000
0!
#1023000
1!
#1054000
0!
#1085000
1!
#1116000
0!
#1147000
1!
#1178000
0!
#1209000
1!
#1240000
0!
#1271000
1!
#1302000
0!
#1333000
1!
#1364000
0!
#1395000
1!
#1426000
0!
#1457000
1!
#1488000
0!
#1519000
1!
#1550000
0!
#1581000
1!
#1612000
0!
#1643000
1!
#1674000
0!
#1705000
1!
#1736000
0!
#1767000
1!
#1798000
0!
#1829000
1!
#1860000
0!
#1891000
1!
#1922000
0!
#1953000
1!
#1984000
0!
#2015000
1!
#2046000
0!
#2077000
1!
#2108000
0!
#2139000
1!
#2170000
0!
#2201000
1!
#2232000
0!
#2263000
1!
#2294000
0!
#2325000
1!
#2356000
0!
#2387000
1!
#2418000
0!
#2449000
1!
#2480000
0!
#2511000
1!
#2542000
0!
#2573000
1!
#2604000
0!
#2635000
1!
#2666000
0!
#2697000
1!
#2728000
0!
#2759000
1!
#2790000
0!
#2821000
1!
#2852000
0!
#2883000
1!
#2914000
0!
#2945000
1!
#2976000
0!
#3007000
1!
#3038000
0!
#3069000
1!
#3100000
0!
#3131000
1!
#3162000
0!
#3193000
1!
#3224000
0!
#3255000
1!
#3286000
0!
#3317000
1!
#3348000
0!
#3379000
1!
#3410000
0!
#3441000
1!
#3472000
0!
#3503000
1!
#3534000
0!
#3565000
1!
#3596000
0!
#3627000
1!
#3658000
0!
#3689000
1!
#3720000
0!
#3751000
1!
#3782000
0!
#3813000
1!
#3844000
0!
#3875000
1!
#3906000
0!
#3937000
1!
#3968000
0!
#3999000
1!
#4030000
0!
#4061000
1!
#4092000
0!
#4123000
1!
#4154000
0!
#4185000
1!
#4216000
0!
#4247000
1!
#4278000
0!
#4309000
1!
#4340000
0!
#4371000
1!
#4402000
0!
#4433000
1!
#4464000
0!
#4495000
1!
#4526000
0!
#4557000
1!
#4588000
0!
#4619000
1!
#4650000
0!
#4681000
1!
#4712000
0!
#4743000
1!
#4774000
0!
#4805000
1!
#4836000
0!
#4867000
1!
#4898000
0!
#4929000
1!
#4960000
0!
#4991000
1!
#5022000
0!
#5053000
1!
#5084000
0!
#5115000
1!
#5146000
0!
#5177000
1!
#5208000
0!
#5239000
1!
#5270000
0!
#5301000
1!
#5332000
0!
#5363000
1!
#5394000
0!
#5425000
1!
#5456000
0!
#5487000
1!
#5518000
0!
#5549000
1!
#5580000
0!
#5611000
1!
#5642000
0!
#5673000
1!
#5704000
0!
#5735000
1!
#5766000
0!
#5797000
1!
#5828000
0!
#5859000
1!
#5890000
0!
#5921000
1!
#5952000
0!
#5983000
1!
#6014000
0!
#6045000
1!
#6076000
0!
#6107000
1!
#6138000
0!
#6169000
1!
#6200000
0!
#6231000
1!
#6262000
0!
#6293000
1!
#6324000
0!
#6355000
1!
#6386000
0!
#6417000
1!
#6448000
0!
#6479000
1!
#6510000
0!
#6541000
1!
#6572000
0!
#6603000
1!
#6634000
0!
#6665000
1!
#6696000
0!
#6727000
1!
#6758000
0!
#6789000
1!
#6820000
0!
#6851000
1!
#6882000
0!
#6913000
1!
#6944000
0!
#6975000
1!
#7006000
0!
#7037000
1!
#7068000
0!
#7099000
1!
#7130000
0!
#7161000
1!
#7192000
0!
#7223000
1!
#7254000
0!
#7285000
1!
#7316000
0!
#7347000
1!
#7378000
0!
#7409000
1!
#7440000
0!
#7471000
1!
#7502000
0!
#7533000
1!
#7564000
0!
#7595000
1!
#7626000
0!
#7657000
1!
#7688000
0!
#7719000
1!
#7750000
0!
#7781000
1!
#7812000
0!
#7843000
1!
#7874000
0!
#7905000
1!
#7936000
0!
#7967000
1!
#7998000
0!
#8029000
1!
#8060000
0!
#8091000
1!
#8122000
0!
#8153000
1!
#8184000
0!
#8215000
1!
#8246000
0!
#8277000
1!
#8308000
0!
#8339000
1!
#8370000
0!
#8401000
1!
#8432000
0!
#8463000
1!
#8494000
0!
#8525000
1!
#8556000
0!
#8587000
1!
#8618000
0!
#8649000
1!
#8680000
0!
#8711000
1!
#8742000
0!
#8773000
1!
#8804000
0!
#8835000
1!
#8866000
0!
#8897000
1!
#8928000
0!
#8959000
1!
#8990000
0!
#9021000
1!
#9052000
0!
#9083000
1!
#9114000
0!
#9145000
1!
#9176000
0!
#9207000
1!
#9238000
0!
#9269000
1!
#9300000
0!
#9331000
1!
#9362000
0!
#9393000
1!
#9424000
0!
#9455000
1!
#9486000
0!
#9517000
1!
#9548000
0!
#9579000
1!
#9610000
0!
#9641000
1!
#9672000
0!
#9703000
1!
#9734000
0!
#9765000
1!
#9796000
0!
#9827000
1!
#9858000
0!
#9889000
1!
#9920000
0!
#9951000
1!
#9982000
0!
#10013000
1!
#10044000
0!
#10075000
1!
#10106000
0!
#10137000
1!
#10168000
0!
#10199000
1!
#10230000
0!
#10261000
1!
#10292000
0!
#10323000
1!
#10354000
0!
#10385000
1!
#10416000
0!
#10447000
1!
#10478000
0!
#10509000
1!
#10540000
0!
#10571000
1!
#10602000
0!
#10633000
1!
#10664000
0!
#10695000
1!
#10726000
0!
#10757000
1!
#10788000
0!
#10819000
1!
#10850000
0!
#10881000
1!
#10912000
0!
#10943000
1!
#10974000
0!
#11005000
1!
#11036000
0!
#11067000
1!
#11098000
0!
#11129000
1!
#11160000
0!
#11191000
1!
#11222000
0!
#11253000
1!
#11284000
0!
#11315000
1!
#11346000
0!
#11377000
1!
#11408000
0!
#11439000
1!
#11470000
0!
#11501000
1!
#11532000
0!
#11563000
1!
#11594000
0!
#11625000
1!
#11656000
0!
#11687000
1!
#11718000
0!
#11749000
1!
#11780000
0!
#11811000
1!
#11842000
0!
#11873000
1!
#11904000
0!
#11935000
1!
#11966000
0!
#11997000
1!
#12028000
0!
#12059000
1!
#12090000
0!
#12121000
1!
#12152000
0!
#12183000
1!
#12214000
0!
#12245000
1!
#12276000
0!
#12307000
1!
#12338000
0!
#12369000
1!
#12400000
0!
#12431000
1!
#12462000
0!
#12493000
1!
#12524000
0!
#12555000
1!
#12586000
0!
#12617000
1!
#12648000
0!
#12679000
1!
#12710000
0!
#12741000
1!
#12772000
0!
#12803000
1!
#12834000
0!
#12865000
1!
#12896000
0!
#12927000
1!
#12958000
0!
#12989000
1!
#13020000
0!
#13051000
1!
#13082000
0!
#13113000
1!
#13144000
0!
#13175000
1!
#13206000
0!
#13237000
1!
#13268000
0!
#13299000
1!
#13330000
0!
#13361000
1!
#13392000
0!
#13423000
1!
#13454000
0!
#13485000
1!
#13516000
0!
#13547000
1!
#13578000
0!
#13609000
1!
#13640000
0!
#13671000
1!
#13702000
0!
#13733000
1!
#13764000
0!
#13795000
1!
#13826000
0!
#13857000
1!
#13888000
0!
#13919000
1!
#13950000
0!
#13981000
1!
#14012000
0!
#14043000
1!
#14074000
0!
#14105000
1!
#14136000
0!
#14167000
1!
#14198000
0!
#14229000
1!
#14260000
0!
#14291000
1!
#14322000
0!
#14353000
1!
#14384000
0!
#14415000
1!
#14446000
0!
#14477000
1!
#14508000
0!
#14539000
1!
#14570000
0!
#14601000
1!
#14632000
0!
#14663000
1!
#14694000
0!
#14725000
1!
#14756000
0!
#14787000
1!
#14818000
0!
#14849000
1!
#14880000
0!
#14911000
1!
#14942000
0!
#14973000
1!
#15004000
0!
#15035000
1!
#15066000
0!
#15097000
1!
#15128000
0!
#15159000
1!
#15190000
0!
#15221000
1!
#15252000
0!
#15283000
1!
#15314000
0!
#15345000
1!
#15376000
0!
#15407000
1!
#15438000
0!
#15469000
1!
#15500000
0!
#15531000
1!
#15562000
0!
#15593000
1!
#15624000
0!
#15655000
1!
#15686000
0!
#15717000
1!
#15748000
0!
#15779000
1!
#15810000
0!
#15841000
1!
#15872000
0!
#15903000
1!
#15934000
0!
#15965000
1!
#15996000
0!
#16027000
1!
#16058000
0!
#16089000
1!
#16120000
0!
#16151000
1!
#16182000
0!
#16213000
1!
#16244000
0!
#16275000
1!
#16306000
0!
#16337000
1!
#16368000
0!
#16399000
1!
#16430000
0!
#16461000
1!
#16492000
0!
#16523000
1!
#16554000
0!
#16585000
1!
#16616000
0!
#16647000
1!
#16678000
0!
#16709000
1!
#16740000
0!
#16771000
1!
#16802000
0!
#16833000
1!
#16864000
0!
#16895000
1!
#16926000
0!
#16957000
1!
#16988000
0!
#17019000
1!
#17050000
0!
#17081000
1!
#17112000
0!
#17143000
1!
#17174000
0!
#17205000
1!
#17236000
0!
#17267000
1!
#17298000
0!
#17329000
1!
#17360000
0!
#17391000
1!
#17422000
0!
#17453000
1!
#17484000
0!
#17515000
1!
#17546000
0!
#17577000
1!
#17608000
0!
#17639000
1!
#17670000
0!
#17701000
1!
#17732000
0!
#17763000
1!
#17794000
0!
#17825000
1!
#17856000
0!
#17887000
1!
#17918000
0!
#17949000
1!
#17980000
0!
#18011000
1!
#18042000
0!
#18073000
1!
#18104000
0!
#18135000
1!
#18166000
0!
#18197000
1!
#18228000
0!
#18259000
1!
#18290000
0!
#18321000
1!
#18352000
0!
#18383000
1!
#18414000
0!
#18445000
1!
#18476000
0!
#18507000
1!
#18538000
0!
#18569000
1!
#18600000
0!
#18631000
1!
#18662000
0!
#18693000
1!
#18724000
0!
#18755000
1!
#18786000
0!
#18817000
1!
#18848000
0!
#18879000
1!
#18910000
0!
#18941000
1!
#18972000
0!
#19003000
1!
#19034000
0!
#19065000
1!
#19096000
0!
#19127000
1!
#19158000
0!
#19189000
1!
#19220000
0!
#19251000
1!
#19282000
0!
#19313000
1!
#19344000
0!
#19375000
1!
#19406000
0!
#19437000
1!
#19468000
0!
#19499000
1!
#19530000
0!
#19561000
1!
#19592000
0!
#19623000
1!
#19654000
0!
#19685000
1!
#19716000
0!
#19747000
1!
#19778000
0!
#19809000
1!
#19840000
0!
#19871000
1!
#19902000
0!
#19933000
1!
#19964000
0!
#19995000
1!
#20026000
0!
#20057000
1!
#20088000
0!
#20119000
1!
#20150000
0!
#20181000
1!
#20212000
0!
#20243000
1!
#20274000
0!
#20305000
1!
#20336000
0!
#20367000
1!
#20398000
0!
#20429000
1!
#20460000
0!
#20491000
1!
#20522000
0!
#20553000
1!
#20584000
0!
#20615000
1!
#20646000
0!
#20677000
1!
#20708000
0!
#20739000
1!
#20770000
0!
#20801000
1!
#20832000
0!
#20863000
1!
#20894000
0!
#20925000
1!
#20956000
0!
#20987000
1!
#21018000
0!
#21049000
1!
#21080000
0!
#21111000
1!
#21142000
0!
#21173000
1!
#21204000
0!
#21235000
1!
#21266000
0!
#21297000
1!
#21328000
0!
#21359000
1!
#21390000
0!
#21421000
1!
#21452000
0!
#21483000
1!
#21514000
0!
#21545000
1!
#21576000
0!
#21607000
1!
#21638000
0!
#21669000
1!
#21700000
0!
#21731000
1!
#21762000
0!
#21793000
1!
#21824000
0!
#21855000
1!
#21886000
0!
#21917000
1!
#21948000
0!
#21979000
1!
#22010000
0!
#22041000
1!
#22072000
0!
#22103000
1!
#22134000
0!
#22165000
1!
#22196000
0!
#22227000
1!
#22258000
0!
#22289000
1!
#22320000
0!
#22351000
1!
#22382000
0!
#22413000
1!
#22444000
0!
#22475000
1!
#22506000
0!
#22537000
1!
#22568000
0!
#22599000
1!
#22630000
0!
#22661000
1!
#22692000
0!
#22723000
1!
#22754000
0!
#22785000
1!
#22816000
0!
#22847000
1!
#22878000
0!
#22909000
1!
#22940000
0!
#22971000
1!
#23002000
0!
#23033000
1!
#23064000
0!
#23095000
1!
#23126000
0!
#23157000
1!
#23188000
0!
#23219000
1!
#23250000
0!
#23281000
1!
#23312000
0!
#23343000
1!
#23374000
0!
#23405000
1!
#23436000
0!
#23467000
1!
#23498000
0!
#23529000
1!
#23560000
0!
#23591000
1!
#23622000
0!
#23653000
1!
#23684000
0!
#23715000
1!
#23746000
0!
#23777000
1!
#23808000
0!
#23839000
1!
#23870000
0!
#23901000
1!
#23932000
0!
#23963000
1!
#23994000
0!
#24025000
1!
#24056000
0!
#24087000
1!
#24118000
0!
#24149000
1!
#24180000
0!
#24211000
1!
#24242000
0!
#24273000
1!
#24304000
0!
#24335000
1!
#24366000
0!
#24397000
1!
#24428000
0!
#24459000
1!
#24490000
0!
#24521000
1!
#24552000
0!
#24583000
1!
#24614000
0!
#24645000
1!
#24676000
0!
#24707000
1!
#24738000
0!
#24769000
1!
#24800000
0!
#24831000
1!
#24862000
0!
#24893000
1!
#24924000
0!
#24955000
1!
#24986000
0!
#25017000
1!
#25048000
0!
#25079000
1!
#25110000
0!
#25141000
1!
#25172000
0!
#25203000
1!
#25234000
0!
#25265000
1!
#25296000
0!
#25327000
1!
#25358000
0!
#25389000
1!
#25420000
0!
#25451000
1!
#25482000
0!
#25513000
1!
#25544000
0!
#25575000
1!
#25606000
0!
#25637000
1!
#25668000
0!
#25699000
1!
#25730000
0!
#25761000
1!
#25792000
0!
#25823000
1!
#25854000
0!
#25885000
1!
#25916000
0!
#25947000
1!
#25978000
0!
#26009000
1!
#26040000
0!
#26071000
1!
#26102000
0!
#26133000
1!
#26164000
0!
#26195000
1!
#26226000
0!
#26257000
1!
#26288000
0!
#26319000
1!
#26350000
0!
#26381000
1!
#26412000
0!
#26443000
1!
#26474000
0!
#26505000
1!
#26536000
0!
#26567000
1!
#26598000
0!
#26629000
1!
#26660000
0!
#26691000
1!
#26722000
0!
#26753000
1!
#26784000
0!
#26815000
1!
#26846000
0!
#26877000
1!
#26908000
0!
#26939000
1!
#26970000
0!
#27001000
1!
#27032000
0!
#27063000
1!
#27094000
0!
#27125000
1!
#27156000
0!
#27187000
1!
#27218000
0!
#27249000
1!
#27280000
0!
#27311000
1!
#27342000
0!
#27373000
1!
#27404000
0!
#27435000
1!
#27466000
0!
#27497000
1!
#27528000
0!
#27559000
1!
#27590000
0!
#27621000
1!
#27652000
0!
#27683000
1!
#27714000
0!
#27745000
1!
#27776000
0!
#27807000
1!
#27838000
0!
#27869000
1!
#27900000
0!
#27931000
1!
#27962000
0!
#27993000
1!
#28024000
0!
#28055000
1!
#28086000
0!
#28117000
1!
#28148000
0!
#28179000
1!
#28210000
0!
#28241000
1!
#28272000
0!
#28303000
1!
#28334000
0!
#28365000
1!
#28396000
0!
#28427000
1!
#28458000
0!
#28489000
1!
#28520000
0!
#28551000
1!
#28582000
0!
#28613000
1!
#28644000
0!
#28675000
1!
#28706000
0!
#28737000
1!
#28768000
0!
#28799000
1!
#28830000
0!
#28861000
1!
#28892000
0!
#28923000
1!
#28954000
0!
#28985000
1!
#29016000
0!
#29047000
1!
#29078000
0!
#29109000
1!
#29140000
0!
#29171000
1!
#29202000
0!
#29233000
1!
#29264000
0!
#29295000
1!
#29326000
0!
#29357000
1!
#29388000
0!
#29419000
1!
#29450000
0!
#29481000
1!
#29512000
0!
#29543000
1!
#29574000
0!
#29605000
1!
#29636000
0!
#29667000
1!
#29698000
0!
#29729000
1!
#29760000
0!
#29791000
1!
#29822000
0!
#29853000
1!
#29884000
0!
#29915000
1!
#29946000
0!
#29977000
1!
#30008000
0!
#30039000
1!
#30070000
0!
#30101000
1!
#30132000
0!
#30163000
1!
#30194000
0!
#30225000
1!
#30256000
0!
#30287000
1!
#30318000
0!
#30349000
1!
#30380000
0!
#30411000
1!
#30442000
0!
#30473000
1!
#30504000
0!
#30535000
1!
#30566000
0!
#30597000
1!
#30628000
0!
#30659000
1!
#30690000
0!
#30721000
1!
#30752000
0!
#30783000
1!
#30814000
0!
#30845000
1!
#30876000
0!
#30907000
1!
#30938000
0!
#30969000
1!
#31000000
0!
#31031000
1!
#31062000
0$
0!
#31093000
b110 1
1!
#31124000
0!
#31155000
1*
b100 1
1!
#31186000
0!
#31217000
b1 :
b0 1
1!
